{
    "type": "images",
    "data": [
        {
            "image": "images\/grosMorne_min.jpg",
            "image-thumbnail": "images\/grosMorne_min_thumb.jpg"
        },
        {
            "image": "images\/grosMorne2_min.jpg",
            "image-thumbnail": "images\/grosMorne2_min_thumb.jpg"
        },
        {
            "image": "images\/icebergAlley_min.jpg",
            "image-thumbnail": "images\/icebergAlley_min_thumb.jpg"
        }
    ],
    "total": 6,
    "per_page": 3,
    "current_page": 1,
    "last_page": 1,
    "next_page_url": "json/p2.json",
    "prev_page_url": null,
    "from": 4,
    "to": 6
}
